id_territoire;nom_territoire;categorie_territoire;superficie_ha;sau_ha;sau_productive_ha;sau_peu_productive_ha;population_totale_2017;population_totale_2010;population_totale_1990;id_territoire_parcel
P-FR;France;PAYS;0;0;0;0;0;0;0;
R-1;Région;REGION;0;0;0;0;0;0;0;
D-1;Département;DEPARTEMENT;0;0;0;0;0;0;0;
RC-1;Regroupement communes;DEPARTEMENT;0;0;0;0;0;0;0;
E-1;Epci;DEPARTEMENT;0;0;0;0;0;0;0;
C-1;Commune 1;COMMUNE;0;0;0;0;0;0;0;
C-2;Commune 2;COMMUNE;0;0;0;0;0;0;0;
C-3;Commune sans prelevement eau;COMMUNE;0;0;0;0;0;0;0;
C-4;Commune avec mouvement en 2021;COMMUNE;0;0;0;0;0;0;0;