id_produit_parcel;nom_produit_parcel;code_culture;P-FR;R-11;R-24;R-27;R-28;R-32;R-44;R-52;R-53;R-75;R-76;R-84;R-93;R-94
53;Produits laitiers;BA-AFO;29.518;20.454;40.342;20.471;34.445;37.065;20.483;40.024;40.01;17.365;12.333;14.308;14.808;1.756
53;Produits laitiers;BA-PRA;40.075;50.441;16.149;50.41;27.932;22.546;50.387;18.742;18.766;57.472;65.619;61.258;60.466;85.569
53;Produits laitiers;BA-AAC;9.323;8.296;10.669;8.297;9.101;9.958;8.298;9.522;9.521;7.874;8.149;7.779;7.97;6.955
53;Produits laitiers;BA-PRO;0.093;0.29;0.148;0.29;0.275;0.279;0.29;0.008;0.008;0.028;0.052;0;0.01;0.095
53;Produits laitiers;BA-AAO;20.991;20.519;32.693;20.533;28.247;30.151;20.542;31.704;31.694;17.261;13.847;16.654;16.745;5.625
54;Viande bovine à viande;BA-AFO;2.483;3.245;3.59;3.201;2.868;3.448;3.497;3.354;3.21;3.222;2.528;2.595;1.865;1.723
54;Viande bovine à viande;BA-PRA;88.427;90.615;89.827;90.519;91.242;90.158;89.951;90.11;90.291;90.497;91.874;91.694;93.137;93.393
54;Viande bovine à viande;BA-AAC;5.417;6.102;6.339;5.976;5.744;6.247;6.252;6.199;6.155;6.065;5.54;5.558;4.997;4.883
54;Viande bovine à viande;BA-PRO;0.059;0.038;0.118;0.147;0.106;0.086;0.137;0.162;0.17;0.114;0.058;0.091;0.001;0
54;Viande bovine à viande;BA-AAO;3.614;0;0.127;0.158;0.041;0.061;0.164;0.175;0.175;0.101;0;0.062;0;0
63;Viande ovine à viande;BA-AFO;1.854;4.858;3.381;1.86;2.103;4.002;2.579;1.809;1.56;2.525;2.474;1.599;1.431;1.115
63;Viande ovine à viande;BA-PRA;86.015;80.171;82.315;85.143;85.851;81.454;83.63;84.767;84.511;83.972;83.456;86.046;88.143;88.878
63;Viande ovine à viande;BA-AAC;7.258;8.256;7.901;7.151;6.552;8.025;7.614;7.417;7.741;7.438;7.791;6.762;5.573;5.326
63;Viande ovine à viande;BA-PRO;0.103;0.109;0.103;0.096;0.096;0.105;0.099;0.096;0.096;0.099;0.099;0.094;0.092;0.09
63;Viande ovine à viande;BA-AAO;4.769;6.605;6.3;5.75;5.399;6.413;6.077;5.91;6.093;5.966;6.179;5.497;4.76;4.59
55;Viande porcine;BA-AFO;0;0;0;0;0;0;0;0;0;0;0;0;0;0
55;Viande porcine;BA-PRA;0;0;0;0;0;0;0;0;0;0;0;0;0;0
55;Viande porcine;BA-AAC;68.972;65.535;65.535;65.535;65.535;65.535;65.535;65.535;65.535;65.535;65.535;65.535;65.535;65.535
55;Viande porcine;BA-PRO;7.116;6.505;6.505;6.505;6.505;6.505;6.505;6.505;6.505;6.505;6.505;6.505;6.505;6.505
55;Viande porcine;BA-AAO;23.911;27.96;27.96;27.96;27.96;27.96;27.96;27.96;27.96;27.96;27.96;27.96;27.96;27.96
57;Volailles, lapins et autres;BA-AFO;0;0;0;0;0;0;0;0;0;0;0;0;0;0
57;Volailles, lapins et autres;BA-PRA;0;0;0;0;0;0;0;0;0;0;0;0;0;0
57;Volailles, lapins et autres;BA-AAC;87.481;85.596;85.596;85.596;85.596;85.596;85.596;85.596;85.596;85.596;85.596;85.596;85.596;85.596
57;Volailles, lapins et autres;BA-PRO;2.551;2.401;2.401;2.401;2.401;2.401;2.401;2.401;2.401;2.401;2.401;2.401;2.401;2.401
57;Volailles, lapins et autres;BA-AAO;9.968;12.003;12.003;12.003;12.003;12.003;12.003;12.003;12.003;12.003;12.003;12.003;12.003;12.003
58;Œufs;BA-AFO;0;0;0;0;0;0;0;0;0;0;0;0;0;0
58;Œufs;BA-PRA;0;0;0;0;0;0;0;0;0;0;0;0;0;0
58;Œufs;BA-AAC;87.481;85.596;85.596;85.596;85.596;85.596;85.596;85.596;85.596;85.596;85.596;85.596;85.596;85.596
58;Œufs;BA-PRO;2.551;2.401;2.401;2.401;2.401;2.401;2.401;2.401;2.401;2.401;2.401;2.401;2.401;2.401
58;Œufs;BA-AAO;9.968;12.003;12.003;12.003;12.003;12.003;12.003;12.003;12.003;12.003;12.003;12.003;12.003;12.003
