code_culture;nom_culture;type_culture;code_groupe_culture;nom_groupe_culture
BA-AFO;Fourrages annuels autres (maïs fourragers, choux, racines et tubercules fourragers);BESOIN_ANIMAUX;FOU;Fourrages
BA-LGF;Légumineuses fourrage;BESOIN_ANIMAUX;FOU;Fourrages
BH-AHC;Céréales alimentation humaine;BESOIN_HUMAIN;CER;Céréales
P-ACR;Autres céréales;PRODUCTION;CER;Céréales
P-BLT;Blé tendre;PRODUCTION;CER;Céréales
P-ANC;Autres;PRODUCTION;SNC;Surfaces non cultivées