id_territoire;nom_territoire;categorie_territoire;superficie_ha;sau_ha;sau_productive_ha;sau_peu_productive_ha;sau_ra_2010_ha;sau_hors_prairies_permanentes_ra_2010_ha;sau_ra_2020_ha;population_totale_2017;population_totale_2010;population_totale_1990;id_territoire_parcel
P-FR;France;PAYS;19349;363.6;212.1;151.5;;;212.1;243346;26494;8421;1
R-11;Île-de-France;REGION;10000;0;0;0;;;0;237015;20000;2000;2
R-75;Nouvelle-Aquitaine;REGION;6790;282.8;212.1;70.7;;;212.1;6285;6445;6370;
R-76;Occitanie;REGION;2559;80.8;0;80.8;;;0;46;49;51;
D-32;Gers;DEPARTEMENT;2559;80.8;0;80.8;;;0;46;49;51;
D-40;Landes;DEPARTEMENT;6790;282.8;212.1;70.7;;;212.1;6285;6445;6370;
D-75;Paris;DEPARTEMENT;10000;0;0;0;;;0;237015;20000;2000;
PAT-1;Le PAT monocommunal du Gée-Rivière;REGROUPEMENT_COMMUNES;2559;80.8;0;80.8;;;0;46;49;51;
PAT-2;Le PAT interdepartemental D-32 (3 communes) D-40 (2 communes);REGROUPEMENT_COMMUNES;9349;363.6;212.1;151.5;;;212.1;6331;6494;6421;
SCOT-1;Le SCOT monocommunal de Paris;REGROUPEMENT_COMMUNES;10000;0;0;0;;;0;237015;20000;2000;
SCOT-2;Le SCOT monocommunal de Gée-Rivière;REGROUPEMENT_COMMUNES;2559;80.8;0;80.8;;;0;46;49;51;
SCOT-3;Le SCOT interdepartemental D-32 (3 communes) D-40 (2 communes);REGROUPEMENT_COMMUNES;9349;363.6;212.1;151.5;;;212.1;6331;6494;6421;
E-200030435;CC d'Aire-sur-l'Adour;EPCI;9349;363.6;212.1;151.5;;;212.1;6331;6494;6421;
E-200054781;Métropole du Grand Paris;EPCI;10000;0;0;0;;;0;237015;20000;2000;
C-32145;Gée-Rivière;COMMUNE;2559;80.8;0;80.8;;;0;46;49;51;
C-32333;Projan(scission2020);COMMUNE;;0;0;0;;;0;;;;
C-32424;Ségos(fusion2017);COMMUNE;;0;0;0;;;0;;;;
C-40001;Aire-sur-l'Adour;COMMUNE;1720;131.3;131.3;0;;;131.3;6129;6279;6205;
C-40146;Latrille;COMMUNE;5070;151.5;80.8;70.7;;;80.8;156;166;165;
C-75056;Paris;COMMUNE;10000;0;0;0;;;0;237015;20000;2000;
