id_territoire;nom_territoire;categorie_territoire;id_pays;id_region;id_departement;ids_regroupements_communes;categorie_regroupement_communes;id_epci;categorie_epci;ids_arrondissements_commune;codes_postaux_commune;annee_dernier_mouvement_commune;type_mouvement_commune
P-FR;France;PAYS;;;;;;;;;1;;
R-1;Région;REGION;P-FR;;;;;;;;1;;
D-1;Département;DEPARTEMENT;P-FR;R-1;;;;;;;1;;
RC-1;Regroupement communes;REGROUPEMENT_COMMUNES;P-FR;R-1;D-1;;;;;;1;;
E-1;Epci;EPCI;P-FR;R-1;D-1;;;;;;1;;
C-1;Commune 1;COMMUNE;P-FR;R-1;D-1;RC-1;;E-1;;;11000;;
C-2;Commune 2;COMMUNE;P-FR;R-1;D-1;RC-1;;E-1;;;12000;;