id_territoire;nom_territoire;categorie_territoire;superficie_ha;sau_ha;sau_productive_ha;sau_peu_productive_ha;population_totale_2017;population_totale_2010;population_totale_1990;id_territoire_parcel
P-FR;France;PAYS;0;0;0;0;0;0;0;
R-1;Région;REGION;0;0;0;0;0;0;0;
D-1;Département;DEPARTEMENT;0;0;0;0;0;0;0;
C-12063;Commune avec population;COMMUNE;0;0;0;0;0;0;0;
C-12222;Commune sans population;COMMUNE;0;0;0;0;0;0;0;