id_commerce;nom_commerce;code_type_commerce;libelle_type_commerce;longitude;latitude;source
GS1;Plus proche voisin du carreau_ouest (à 542m du carreau_ouest et 1392m du carreau_est);COMMERCE_GENERALISTE;;3.21;44;BPE
GS2;Plus proche voisin du carreau_est (à 1889m du carreau_ouest et 1115m du carreau_est);COMMERCE_GENERALISTE;;3.23;44;BPE
GS3;Plus proche voisin d'aucun carreau (plus éloigné des carreaux que les 2 commerces précédents);COMMERCE_GENERALISTE;;3;44;BPE
P;Poissonnerie à 1.7km du carreau ouest et 3.1km du carreau est;BOUCHERIE_POISSONNERIE;;3.185;44;BPE
B;Boulangerie à plus de 10km des deux carreaux;BOULANGERIE_PATISSERIE;;3.22;44;BPE
CS;Primeur à plus de 10km des deux carreaux;COMMERCE_SPECIALISE;;2.8;44;BPE
